%YAML 1.1
%TAG !u! tag:unity3d.com,2011:
--- !u!1045 &1
EditorBuildSettings:
  m_ObjectHideFlags: 0
  serializedVersion: 2
  m_Scenes:
  - enabled: 1
    path: Assets/Aja.unity
    guid: 2516374efdb3f7d468c4105d92145399
  m_configObjects:
    Unity.XR.Oculus.Settings: {fileID: 11400000, guid: 968aa7dbc32429346bbf318599947317, type: 2}
    Unity.XR.OpenVR.Settings: {fileID: 11400000, guid: b395803ccac71894f9ac64a55990f8c5, type: 2}
    Unity.XR.WindowsMR.Settings: {fileID: 11400000, guid: 7ec79d84575a7fb40b49ae1bb60194b7, type: 2}
    UnityEditor.XR.ARCore.ARCoreSettings: {fileID: 11400000, guid: 50e220c61cbfbfd4eaa9be28e07b5831, type: 2}
    com.unity.xr.management.loader_settings: {fileID: 11400000, guid: aa1a726de1d25b14889e810dec82e505, type: 2}
