%YAML 1.1
%TAG !u! tag:unity3d.com,2011:
--- !u!162 &1
EditorUserSettings:
  m_ObjectHideFlags: 0
  serializedVersion: 4
  m_ConfigSettings:
    RecentlyUsedScenePath-0:
      value: 224247031146467a181a030a112d5b5f330f19273c242323621a1e36ece52777d1f333e8ea0c0d737120ea2805774116fc0e0c13b62f0f061e40e80018eb09
      flags: 0
    RecentlyUsedScenePath-1:
      value: 224247031146467a181a030a112d5b5f330f19273c242323621a1e36ece52777dad579dae43f313d1403fd721130082beb
      flags: 0
    RecentlyUsedScenePath-2:
      value: 224247031146467a181a030a112d5b5f330f19273c242323621a1e36ece52777d1f333e8ea0c0d731d07e2334a2b0f36e613
      flags: 0
    RecentlyUsedScenePath-3:
      value: 224247031146467a181a030a112d5b5f330f19273c242323621a1e36ece52777dad579cde23730722c0ce6281d
      flags: 0
    RecentlyUsedScenePath-4:
      value: 22424703114646760c07022a112f535e0319113e35
      flags: 0
    RecentlyUsedScenePath-5:
      value: 22424703114646680e0b0227036c6c111b07142f1f2b233e2867083debf42d
      flags: 0
    RecentlyUsedScenePath-6:
      value: 224247031146467a070f42371e2a4b09
      flags: 0
    RecentlyUsedScenePath-7:
      value: 224247031146466f181a03301922535e0319113e35
      flags: 0
    RecentlyUsedScenePath-8:
      value: 22424703114646680e0b0227036c7e1e0c1f17243566333e243d04
      flags: 0
    vcSharedLogLevel:
      value: 0d5e400f0650
      flags: 0
  m_VCAutomaticAdd: 1
  m_VCDebugCom: 0
  m_VCDebugCmd: 0
  m_VCDebugOut: 0
  m_SemanticMergeMode: 2
  m_VCShowFailedCheckout: 1
  m_VCOverwriteFailedCheckoutAssets: 1
  m_VCProjectOverlayIcons: 1
  m_VCHierarchyOverlayIcons: 1
  m_VCOtherOverlayIcons: 1
  m_VCAllowAsyncUpdate: 1
