%YAML 1.1
%TAG !u! tag:unity3d.com,2011:
--- !u!114 &11400000
MonoBehaviour:
  m_ObjectHideFlags: 0
  m_CorrespondingSourceObject: {fileID: 0}
  m_PrefabInstance: {fileID: 0}
  m_PrefabAsset: {fileID: 0}
  m_GameObject: {fileID: 0}
  m_Enabled: 1
  m_EditorHideFlags: 0
  m_Script: {fileID: 11500000, guid: c789d55c4f1cff34799abba03737e8f7, type: 3}
  m_Name: ftGlobalStorage
  m_EditorClassIdentifier: 
  modifiedAssetPathList: []
  modifiedAssetPaddingHash: 
  modifiedMeshList: []
  modifiedMeshPaddingList: 
  modifiedAssets: []
  assetList: []
  uvOverlapAssetList: 
  xatlasWarningShown: 0
  foundCompatibleSetup: 0
  gpuName: 
  runsNonRTX: 1
  runsOptix5: 1
  runsOptix6: 1
  runsOptix7: 1
  runsOIDN: 1
  alwaysEnableRTX: 0
  checkerPreviewOn: 0
  rtSceneViewPreviewOn: 0
  renderSettingsBounces: 5
  renderSettingsGISamples: 16
  renderSettingsGIBackFaceWeight: 0
  renderSettingsTileSize: 512
  renderSettingsPriority: 2
  renderSettingsTexelsPerUnit: 20
  renderSettingsForceRefresh: 1
  renderSettingsForceRebuildGeometry: 1
  renderSettingsPerformRendering: 1
  renderSettingsUserRenderMode: 0
  renderSettingsDistanceShadowmask: 0
  renderSettingsSettingsMode: 0
  renderSettingsFixSeams: 1
  renderSettingsDenoise: 1
  renderSettingsDenoise2x: 0
  renderSettingsEncode: 1
  renderSettingsEncodeMode: 0
  renderSettingsOverwriteWarning: 0
  renderSettingsAutoAtlas: 1
  renderSettingsUnwrapUVs: 1
  renderSettingsForceDisableUnwrapUVs: 0
  renderSettingsMaxAutoResolution: 4096
  renderSettingsMinAutoResolution: 16
  renderSettingsUnloadScenes: 1
  renderSettingsAdjustSamples: 1
  renderSettingsGILODMode: 0
  renderSettingsGILODModeEnabled: 1
  renderSettingsCheckOverlaps: 0
  renderSettingsSkipOutOfBoundsUVs: 1
  renderSettingsHackEmissiveBoost: 1
  renderSettingsHackIndirectBoost: 1
  renderSettingsTempPath: 
  renderSettingsOutPath: 
  renderSettingsUseScenePath: 0
  renderSettingsHackAOIntensity: 0
  renderSettingsHackAOSamples: 16
  renderSettingsHackAORadius: 1
  renderSettingsShowAOSettings: 0
  renderSettingsShowTasks: 1
  renderSettingsShowTasks2: 0
  renderSettingsShowPaths: 1
  renderSettingsShowNet: 1
  renderSettingsOcclusionProbes: 0
  renderSettingsTexelsPerMap: 0
  renderSettingsTexelsColor: 1
  renderSettingsTexelsMask: 1
  renderSettingsTexelsDir: 1
  renderSettingsShowDirWarning: 1
  renderSettingsRenderDirMode: 0
  renderSettingsShowCheckerSettings: 0
  renderSettingsSamplesWarning: 1
  renderSettingsPrefabWarning: 1
  renderSettingsSplitByScene: 0
  renderSettingsUVPaddingMax: 0
  renderSettingsPostPacking: 1
  renderSettingsHoleFilling: 0
  renderSettingsBeepOnFinish: 0
  renderSettingsExportTerrainAsHeightmap: 1
  renderSettingsRTXMode: 0
  renderSettingsLightProbeMode: 1
  renderSettingsClientMode: 0
  renderSettingsServerAddress: 127.0.0.1
  renderSettingsUnwrapper: 0
  renderSettingsDenoiserType: 100
  renderSettingsExportTerrainTrees: 0
  renderSettingsShowPerf: 1
  renderSettingsSampleDiv: 1
  renderSettingsAtlasPacker: 0
  renderSettingsBatchPoints: 1
  renderSettingsRTPVExport: 1
  renderSettingsRTPVSceneView: 0
  renderSettingsRTPVWidth: 640
  renderSettingsRTPVHeight: 360
  modifiedMeshPaddingArray: 
  modifiedMeshUnwrapperArray: 
